wave.vcd
$date
     Oct 19, 2015       04:21:02
$end

$version
 SystemC 2.3.1-Accellera --- Aug 16 2015 20:35:33
$end

$timescale
     1 ns
$end

$scope module SystemC $end
$var wire    1  aaaaa  reset       $end
$var wire    1  aaaab  Request_Node1_Router1       $end
$var wire    2  aaaac  Ans_Node1_Router1 [1:0]  $end
$var wire   32  aaaad  Addr_r_Node1_Router1 [31:0]  $end
$var wire   32  aaaae  Addr_Node1_Router1 [31:0]  $end
$var wire   32  aaaaf  Data_Node1_Router1 [31:0]  $end
$var wire    1  aaaag  Rnw_Node1_Router1       $end
$var wire    1  aaaah  Valid_Node1_Router1       $end
$var wire    1  aaaai  Cts_Node1_Router1       $end
$var wire    1  aaaaj  Request_Router1_Node1       $end
$var wire    2  aaaak  Ans_Router1_Node1 [1:0]  $end
$var wire   32  aaaal  Addr_r_Router1_Node1 [31:0]  $end
$var wire    1  aaaam  Request_Node2_Router2       $end
$var wire    2  aaaan  Ans_Node2_Router2 [1:0]  $end
$var wire   32  aaaao  Addr_r_Node2_Router2 [31:0]  $end
$var wire    1  aaaap  Request_Router2_Node2       $end
$var wire    2  aaaaq  Ans_Router2_Node2 [1:0]  $end
$var wire   32  aaaar  Addr_r_Router2_Node2 [31:0]  $end
$var wire   32  aaaas  Addr_Router2_Node2 [31:0]  $end
$var wire   32  aaaat  Data_Router2_Node2 [31:0]  $end
$var wire    1  aaaau  Rnw_Router2_Node2       $end
$var wire    1  aaaav  Valid_Router2_Node2       $end
$var wire    1  aaaaw  Cts_Router2_Node2       $end
$var wire    1  aaaax  Request_Router2_Router1       $end
$var wire    2  aaaay  Ans_Router2_Router1 [1:0]  $end
$var wire   32  aaaaz  Addr_r_Router2_Router1 [31:0]  $end
$var wire    1  aaaba  Request_Router1_Router2       $end
$var wire    2  aaabb  Ans_Router1_Router2 [1:0]  $end
$var wire   32  aaabc  Addr_r_Router1_Router2 [31:0]  $end
$var wire    1  aaabd  clock       $end
$upscope $end
$enddefinitions  $end

$comment
All initial values are dumped below at time 0 sec = 0 timescale units.
$end

$dumpvars
1aaaaa
0aaaab
bZZ aaaac
bZZZZZZZZZZZZZZZZZZZZZZZZZZZZZZZZ aaaad
bZZZZZZZZZZZZZZZZZZZZZZZZZZZZZZZZ aaaae
bZZZZZZZZZZZZZZZZZZZZZZZZZZZZZZZZ aaaaf
zaaaag
zaaaah
zaaaai
0aaaaj
bZZ aaaak
bZZZZZZZZZZZZZZZZZZZZZZZZZZZZZZZZ aaaal
0aaaam
bZZ aaaan
bZZZZZZZZZZZZZZZZZZZZZZZZZZZZZZZZ aaaao
0aaaap
bZZ aaaaq
bZZZZZZZZZZZZZZZZZZZZZZZZZZZZZZZZ aaaar
bZZZZZZZZZZZZZZZZZZZZZZZZZZZZZZZZ aaaas
bZZZZZZZZZZZZZZZZZZZZZZZZZZZZZZZZ aaaat
zaaaau
zaaaav
zaaaaw
0aaaax
bZZ aaaay
bZZZZZZZZZZZZZZZZZZZZZZZZZZZZZZZZ aaaaz
0aaaba
bZZ aaabb
bZZZZZZZZZZZZZZZZZZZZZZZZZZZZZZZZ aaabc
1aaabd
$end

#5
0aaabd

#10
1aaabd

#15
0aaabd

#20
1aaabd

#25
0aaabd

#30
1aaabd

#35
0aaabd

#40
0aaaaa
1aaaab
b1 aaaac
b11110000 aaaad
b1 aaaan
1aaabd

#45
0aaabd

#50
0aaaab
bZZZZZZZZZZZZZZZZZZZZZZZZZZZZZZZZ aaaad
b1 aaaak
b1 aaaaq
1aaabd

#55
0aaabd

#60
1aaabd

#65
0aaabd

#70
1aaaba
b11110000 aaabc
1aaabd

#75
0aaabd

#80
0aaaba
1aaabd

#85
0aaabd

#90
1aaabd

#95
0aaabd

#100
1aaaap
b11110000 aaaar
1aaabd

#105
0aaabd

#110
b11 aaaan
0aaaap
1aaabd

#115
0aaabd

#120
b11 aaaay
1aaabd

#125
0aaabd

#130
b11 aaaak
1aaabd

#135
0aaabd

#140
b1111 aaaae
b11011110101011011011111011101111 aaaaf
0aaaag
1aaaah
1aaabd

#145
0aaabd

#150
1aaabd

#155
0aaabd

#160
b1111 aaaas
b11011110101011011011111011101111 aaaat
0aaaau
1aaaav
1aaabd

